<?xml version="1.0" encoding="UTF-8" standalone="no"?>
<!-- Created with Inkscape (http://www.inkscape.org/) -->
<svg xmlns:dc="http://purl.org/dc/elements/1.1/" xmlns:cc="http://creativecommons.org/ns#" xmlns:rdf="http://www.w3.org/1999/02/22-rdf-syntax-ns#" xmlns:svg="http://www.w3.org/2000/svg" xmlns="http://www.w3.org/2000/svg" xmlns:xlink="http://www.w3.org/1999/xlink" version="1.1" width="1025.9054" height="938.85321" id="svg8641">
  <defs id="defs3">
    <filter color-interpolation-filters="sRGB" id="filter6343">
      <feGaussianBlur stdDeviation="21.587398" id="feGaussianBlur6345"/>
    </filter>
    <linearGradient x1="897.25354" y1="345.13638" x2="825.54498" y2="354.99628" id="linearGradient6071" xlink:href="#linearGradient11931" gradientUnits="userSpaceOnUse"/>
    <linearGradient id="linearGradient11931">
      <stop id="stop11933" style="stop-color:#ff3401;stop-opacity:1" offset="0"/>
      <stop id="stop11935" style="stop-color:#ff3401;stop-opacity:0" offset="1"/>
    </linearGradient>
    <linearGradient x1="1422.5189" y1="519.02966" x2="1330.1941" y2="583.56732" id="linearGradient6073" xlink:href="#linearGradient12074" gradientUnits="userSpaceOnUse"/>
    <linearGradient id="linearGradient12074">
      <stop id="stop12076" style="stop-color:#fddb00;stop-opacity:1" offset="0"/>
      <stop id="stop12078" style="stop-color:#fddb00;stop-opacity:0" offset="1"/>
    </linearGradient>
    <linearGradient x1="4619.5732" y1="-5546.1191" x2="4396.8667" y2="-3815.3699" id="linearGradient6075" xlink:href="#linearGradient4393" gradientUnits="userSpaceOnUse" gradientTransform="translate(-784.54139,-18.586011)"/>
    <linearGradient id="linearGradient4393">
      <stop id="stop4395" style="stop-color:#ffdc55;stop-opacity:1" offset="0"/>
      <stop id="stop4397" style="stop-color:#ffdc55;stop-opacity:0" offset="1"/>
    </linearGradient>
    <filter color-interpolation-filters="sRGB" id="filter6333">
      <feGaussianBlur stdDeviation="22.402644" id="feGaussianBlur6335"/>
    </filter>
    <filter x="-0.046799999" y="-0.156" width="1.0936" height="1.312" color-interpolation-filters="sRGB" id="filter12464">
      <feGaussianBlur stdDeviation="0.87394827" id="feGaussianBlur12466"/>
    </filter>
    <linearGradient x1="4619.5732" y1="-5546.1191" x2="4396.8667" y2="-3815.3699" id="linearGradient6077" xlink:href="#linearGradient4393" gradientUnits="userSpaceOnUse" gradientTransform="translate(-784.54139,-18.586011)"/>
    <filter x="-0.10827599" y="-0.0134957" width="1.216552" height="1.0269914" color-interpolation-filters="sRGB" id="filter12486">
      <feGaussianBlur stdDeviation="3.1529059" id="feGaussianBlur12488"/>
    </filter>
    <linearGradient x1="1268.9081" y1="1130.9559" x2="1290.458" y2="1130.9559" id="linearGradient6079" xlink:href="#linearGradient12276" gradientUnits="userSpaceOnUse"/>
    <linearGradient id="linearGradient12276">
      <stop id="stop12278" style="stop-color:#9e651b;stop-opacity:1" offset="0"/>
      <stop id="stop12280" style="stop-color:#9e651b;stop-opacity:0" offset="1"/>
    </linearGradient>
    <linearGradient x1="1268.9081" y1="1130.9559" x2="1290.458" y2="1130.9559" id="linearGradient6081" xlink:href="#linearGradient12276" gradientUnits="userSpaceOnUse"/>
    <filter x="-1.4611486" y="-0.030628866" width="3.922297" height="1.0612577" color-interpolation-filters="sRGB" id="filter12338">
      <feGaussianBlur stdDeviation="3.706131" id="feGaussianBlur12340"/>
    </filter>
    <linearGradient x1="1268.9081" y1="1130.9559" x2="1290.458" y2="1130.9559" id="linearGradient6083" xlink:href="#linearGradient12276" gradientUnits="userSpaceOnUse"/>
    <filter color-interpolation-filters="sRGB" id="filter12472">
      <feGaussianBlur stdDeviation="2.8278896" id="feGaussianBlur12474"/>
    </filter>
    <filter color-interpolation-filters="sRGB" id="filter12424">
      <feGaussianBlur stdDeviation="0.39215628" id="feGaussianBlur12426"/>
    </filter>
    <filter x="-0.10149694" y="-0.10746735" width="1.2029939" height="1.2149347" color-interpolation-filters="sRGB" id="filter12428">
      <feGaussianBlur stdDeviation="0.68233138" id="feGaussianBlur12430"/>
    </filter>
    <linearGradient x1="1561.4542" y1="1060.4294" x2="1271.9309" y2="1044.2949" id="linearGradient6085" xlink:href="#linearGradient12368" gradientUnits="userSpaceOnUse"/>
    <linearGradient id="linearGradient12368">
      <stop id="stop12370" style="stop-color:#c4973c;stop-opacity:1" offset="0"/>
      <stop id="stop12372" style="stop-color:#c4973c;stop-opacity:0" offset="1"/>
    </linearGradient>
    <linearGradient x1="1278.4097" y1="1004.1728" x2="1279.653" y2="1019.58" id="linearGradient6087" xlink:href="#linearGradient12380" gradientUnits="userSpaceOnUse"/>
    <linearGradient id="linearGradient12380">
      <stop id="stop12382" style="stop-color:#ececec;stop-opacity:1" offset="0"/>
      <stop id="stop12384" style="stop-color:#ececec;stop-opacity:0" offset="1"/>
    </linearGradient>
    <linearGradient x1="1278.4097" y1="1004.1728" x2="1279.653" y2="1019.58" id="linearGradient6089" xlink:href="#linearGradient12380" gradientUnits="userSpaceOnUse"/>
    <filter x="-0.034559712" y="-0.22738087" width="1.0691195" height="1.4547617" color-interpolation-filters="sRGB" id="filter13447">
      <feGaussianBlur stdDeviation="8.6790444" id="feGaussianBlur13449"/>
    </filter>
    <linearGradient x1="1806.608" y1="1405.0789" x2="1805.2633" y2="1410.4569" id="linearGradient6105" xlink:href="#linearGradient12216" gradientUnits="userSpaceOnUse"/>
    <linearGradient id="linearGradient12216">
      <stop id="stop12218" style="stop-color:#e67a17;stop-opacity:1" offset="0"/>
      <stop id="stop12220" style="stop-color:#ff9955;stop-opacity:1" offset="1"/>
    </linearGradient>
    <linearGradient x1="1806.608" y1="1405.0789" x2="1805.2633" y2="1410.4569" id="linearGradient6091" xlink:href="#linearGradient12216" gradientUnits="userSpaceOnUse"/>
    <linearGradient x1="1806.608" y1="1405.0789" x2="1805.2633" y2="1410.4569" id="linearGradient6093" xlink:href="#linearGradient12216" gradientUnits="userSpaceOnUse"/>
    <linearGradient x1="1806.608" y1="1405.0789" x2="1805.2633" y2="1410.4569" id="linearGradient6095" xlink:href="#linearGradient12216" gradientUnits="userSpaceOnUse"/>
    <linearGradient x1="1806.608" y1="1405.0789" x2="1805.2633" y2="1410.4569" id="linearGradient6097" xlink:href="#linearGradient12216" gradientUnits="userSpaceOnUse"/>
    <linearGradient x1="1806.608" y1="1405.0789" x2="1805.2633" y2="1410.4569" id="linearGradient6099" xlink:href="#linearGradient12216" gradientUnits="userSpaceOnUse"/>
    <linearGradient x1="1806.608" y1="1405.0789" x2="1805.2633" y2="1410.4569" id="linearGradient6101" xlink:href="#linearGradient12216" gradientUnits="userSpaceOnUse"/>
    <linearGradient x1="1806.608" y1="1405.0789" x2="1805.2633" y2="1410.4569" id="linearGradient6103" xlink:href="#linearGradient12216" gradientUnits="userSpaceOnUse"/>
    <filter color-interpolation-filters="sRGB" id="filter11823">
      <feGaussianBlur stdDeviation="0.5882344" id="feGaussianBlur11825"/>
    </filter>
    <linearGradient x1="351.37201" y1="280.59863" x2="352.26837" y2="167.65762" id="linearGradient6107" xlink:href="#linearGradient11829" gradientUnits="userSpaceOnUse"/>
    <linearGradient id="linearGradient11829">
      <stop id="stop11831" style="stop-color:#b60f12;stop-opacity:1" offset="0"/>
      <stop id="stop11833" style="stop-color:#b60f12;stop-opacity:0" offset="1"/>
    </linearGradient>
    <linearGradient x1="351.37201" y1="280.59863" x2="352.26837" y2="167.65762" id="linearGradient6109" xlink:href="#linearGradient11829" gradientUnits="userSpaceOnUse"/>
    <linearGradient x1="1422.5189" y1="519.02966" x2="1330.1941" y2="583.56732" id="linearGradient6111" xlink:href="#linearGradient12074" gradientUnits="userSpaceOnUse"/>
    <linearGradient x1="897.25354" y1="345.13638" x2="825.54498" y2="354.99628" id="linearGradient6113" xlink:href="#linearGradient11931" gradientUnits="userSpaceOnUse"/>
    <linearGradient x1="351.37201" y1="280.59863" x2="352.26837" y2="167.65762" id="linearGradient6115" xlink:href="#linearGradient11829" gradientUnits="userSpaceOnUse"/>
    <linearGradient x1="351.37201" y1="280.59863" x2="352.26837" y2="167.65762" id="linearGradient6117" xlink:href="#linearGradient11829" gradientUnits="userSpaceOnUse"/>
    <linearGradient x1="5033.1714" y1="-3229.9695" x2="4008.7207" y2="-2383.6841" id="linearGradient6119" xlink:href="#linearGradient4407" gradientUnits="userSpaceOnUse" gradientTransform="translate(-440.93677,-2735.6077)"/>
    <linearGradient id="linearGradient4407">
      <stop id="stop4409" style="stop-color:#d45500;stop-opacity:1" offset="0"/>
      <stop id="stop4411" style="stop-color:#d45500;stop-opacity:0" offset="1"/>
    </linearGradient>
    <linearGradient x1="1806.608" y1="1405.0789" x2="1805.2633" y2="1410.4569" id="linearGradient6135" xlink:href="#linearGradient12216" gradientUnits="userSpaceOnUse"/>
    <linearGradient x1="1806.608" y1="1405.0789" x2="1805.2633" y2="1410.4569" id="linearGradient6121" xlink:href="#linearGradient12216" gradientUnits="userSpaceOnUse"/>
    <linearGradient x1="1806.608" y1="1405.0789" x2="1805.2633" y2="1410.4569" id="linearGradient6123" xlink:href="#linearGradient12216" gradientUnits="userSpaceOnUse"/>
    <linearGradient x1="1806.608" y1="1405.0789" x2="1805.2633" y2="1410.4569" id="linearGradient6125" xlink:href="#linearGradient12216" gradientUnits="userSpaceOnUse"/>
    <linearGradient x1="1806.608" y1="1405.0789" x2="1805.2633" y2="1410.4569" id="linearGradient6127" xlink:href="#linearGradient12216" gradientUnits="userSpaceOnUse"/>
    <linearGradient x1="1806.608" y1="1405.0789" x2="1805.2633" y2="1410.4569" id="linearGradient6129" xlink:href="#linearGradient12216" gradientUnits="userSpaceOnUse"/>
    <linearGradient x1="1806.608" y1="1405.0789" x2="1805.2633" y2="1410.4569" id="linearGradient6131" xlink:href="#linearGradient12216" gradientUnits="userSpaceOnUse"/>
    <linearGradient x1="1806.608" y1="1405.0789" x2="1805.2633" y2="1410.4569" id="linearGradient6133" xlink:href="#linearGradient12216" gradientUnits="userSpaceOnUse"/>
    <linearGradient x1="1806.608" y1="1405.0789" x2="1805.2633" y2="1410.4569" id="linearGradient6151" xlink:href="#linearGradient12216" gradientUnits="userSpaceOnUse"/>
    <linearGradient x1="1806.608" y1="1405.0789" x2="1805.2633" y2="1410.4569" id="linearGradient6137" xlink:href="#linearGradient12216" gradientUnits="userSpaceOnUse"/>
    <linearGradient x1="1806.608" y1="1405.0789" x2="1805.2633" y2="1410.4569" id="linearGradient6139" xlink:href="#linearGradient12216" gradientUnits="userSpaceOnUse"/>
    <linearGradient x1="1806.608" y1="1405.0789" x2="1805.2633" y2="1410.4569" id="linearGradient6141" xlink:href="#linearGradient12216" gradientUnits="userSpaceOnUse"/>
    <linearGradient x1="1806.608" y1="1405.0789" x2="1805.2633" y2="1410.4569" id="linearGradient6143" xlink:href="#linearGradient12216" gradientUnits="userSpaceOnUse"/>
    <linearGradient x1="1806.608" y1="1405.0789" x2="1805.2633" y2="1410.4569" id="linearGradient6145" xlink:href="#linearGradient12216" gradientUnits="userSpaceOnUse"/>
    <linearGradient x1="1806.608" y1="1405.0789" x2="1805.2633" y2="1410.4569" id="linearGradient6147" xlink:href="#linearGradient12216" gradientUnits="userSpaceOnUse"/>
    <linearGradient x1="1806.608" y1="1405.0789" x2="1805.2633" y2="1410.4569" id="linearGradient6149" xlink:href="#linearGradient12216" gradientUnits="userSpaceOnUse"/>
    <linearGradient x1="351.37201" y1="280.59863" x2="352.26837" y2="167.65762" id="linearGradient6153" xlink:href="#linearGradient11829" gradientUnits="userSpaceOnUse"/>
    <linearGradient x1="351.37201" y1="280.59863" x2="352.26837" y2="167.65762" id="linearGradient6155" xlink:href="#linearGradient11829" gradientUnits="userSpaceOnUse"/>
    <linearGradient x1="1422.5189" y1="519.02966" x2="1330.1941" y2="583.56732" id="linearGradient6157" xlink:href="#linearGradient12074" gradientUnits="userSpaceOnUse"/>
    <linearGradient x1="351.37201" y1="280.59863" x2="352.26837" y2="167.65762" id="linearGradient6159" xlink:href="#linearGradient11829" gradientUnits="userSpaceOnUse"/>
    <linearGradient x1="351.37201" y1="280.59863" x2="352.26837" y2="167.65762" id="linearGradient6161" xlink:href="#linearGradient11829" gradientUnits="userSpaceOnUse"/>
    <linearGradient x1="1422.5189" y1="519.02966" x2="1330.1941" y2="583.56732" id="linearGradient6163" xlink:href="#linearGradient12074" gradientUnits="userSpaceOnUse"/>
    <linearGradient x1="897.25354" y1="345.13638" x2="825.54498" y2="354.99628" id="linearGradient6165" xlink:href="#linearGradient11931" gradientUnits="userSpaceOnUse"/>
    <linearGradient x1="1422.5189" y1="519.02966" x2="1330.1941" y2="583.56732" id="linearGradient6167" xlink:href="#linearGradient12074" gradientUnits="userSpaceOnUse"/>
    <linearGradient x1="1806.608" y1="1405.0789" x2="1805.2633" y2="1410.4569" id="linearGradient6183" xlink:href="#linearGradient12216" gradientUnits="userSpaceOnUse"/>
    <linearGradient x1="1806.608" y1="1405.0789" x2="1805.2633" y2="1410.4569" id="linearGradient6169" xlink:href="#linearGradient12216" gradientUnits="userSpaceOnUse"/>
    <linearGradient x1="1806.608" y1="1405.0789" x2="1805.2633" y2="1410.4569" id="linearGradient6171" xlink:href="#linearGradient12216" gradientUnits="userSpaceOnUse"/>
    <linearGradient x1="1806.608" y1="1405.0789" x2="1805.2633" y2="1410.4569" id="linearGradient6173" xlink:href="#linearGradient12216" gradientUnits="userSpaceOnUse"/>
    <linearGradient x1="1806.608" y1="1405.0789" x2="1805.2633" y2="1410.4569" id="linearGradient6175" xlink:href="#linearGradient12216" gradientUnits="userSpaceOnUse"/>
    <linearGradient x1="1806.608" y1="1405.0789" x2="1805.2633" y2="1410.4569" id="linearGradient6177" xlink:href="#linearGradient12216" gradientUnits="userSpaceOnUse"/>
    <linearGradient x1="1806.608" y1="1405.0789" x2="1805.2633" y2="1410.4569" id="linearGradient6179" xlink:href="#linearGradient12216" gradientUnits="userSpaceOnUse"/>
    <linearGradient x1="1806.608" y1="1405.0789" x2="1805.2633" y2="1410.4569" id="linearGradient6181" xlink:href="#linearGradient12216" gradientUnits="userSpaceOnUse"/>
    <linearGradient x1="1806.608" y1="1405.0789" x2="1805.2633" y2="1410.4569" id="linearGradient6199" xlink:href="#linearGradient12216" gradientUnits="userSpaceOnUse"/>
    <linearGradient x1="1806.608" y1="1405.0789" x2="1805.2633" y2="1410.4569" id="linearGradient6185" xlink:href="#linearGradient12216" gradientUnits="userSpaceOnUse"/>
    <linearGradient x1="1806.608" y1="1405.0789" x2="1805.2633" y2="1410.4569" id="linearGradient6187" xlink:href="#linearGradient12216" gradientUnits="userSpaceOnUse"/>
    <linearGradient x1="1806.608" y1="1405.0789" x2="1805.2633" y2="1410.4569" id="linearGradient6189" xlink:href="#linearGradient12216" gradientUnits="userSpaceOnUse"/>
    <linearGradient x1="1806.608" y1="1405.0789" x2="1805.2633" y2="1410.4569" id="linearGradient6191" xlink:href="#linearGradient12216" gradientUnits="userSpaceOnUse"/>
    <linearGradient x1="1806.608" y1="1405.0789" x2="1805.2633" y2="1410.4569" id="linearGradient6193" xlink:href="#linearGradient12216" gradientUnits="userSpaceOnUse"/>
    <linearGradient x1="1806.608" y1="1405.0789" x2="1805.2633" y2="1410.4569" id="linearGradient6195" xlink:href="#linearGradient12216" gradientUnits="userSpaceOnUse"/>
    <linearGradient x1="1806.608" y1="1405.0789" x2="1805.2633" y2="1410.4569" id="linearGradient6197" xlink:href="#linearGradient12216" gradientUnits="userSpaceOnUse"/>
    <linearGradient x1="1422.5189" y1="519.02966" x2="1330.1941" y2="583.56732" id="linearGradient6201" xlink:href="#linearGradient12074" gradientUnits="userSpaceOnUse"/>
    <linearGradient x1="1806.608" y1="1405.0789" x2="1805.2633" y2="1410.4569" id="linearGradient6217" xlink:href="#linearGradient12216" gradientUnits="userSpaceOnUse"/>
    <linearGradient x1="1806.608" y1="1405.0789" x2="1805.2633" y2="1410.4569" id="linearGradient6203" xlink:href="#linearGradient12216" gradientUnits="userSpaceOnUse"/>
    <linearGradient x1="1806.608" y1="1405.0789" x2="1805.2633" y2="1410.4569" id="linearGradient6205" xlink:href="#linearGradient12216" gradientUnits="userSpaceOnUse"/>
    <linearGradient x1="1806.608" y1="1405.0789" x2="1805.2633" y2="1410.4569" id="linearGradient6207" xlink:href="#linearGradient12216" gradientUnits="userSpaceOnUse"/>
    <linearGradient x1="1806.608" y1="1405.0789" x2="1805.2633" y2="1410.4569" id="linearGradient6209" xlink:href="#linearGradient12216" gradientUnits="userSpaceOnUse"/>
    <linearGradient x1="1806.608" y1="1405.0789" x2="1805.2633" y2="1410.4569" id="linearGradient6211" xlink:href="#linearGradient12216" gradientUnits="userSpaceOnUse"/>
    <linearGradient x1="1806.608" y1="1405.0789" x2="1805.2633" y2="1410.4569" id="linearGradient6213" xlink:href="#linearGradient12216" gradientUnits="userSpaceOnUse"/>
    <linearGradient x1="1806.608" y1="1405.0789" x2="1805.2633" y2="1410.4569" id="linearGradient6215" xlink:href="#linearGradient12216" gradientUnits="userSpaceOnUse"/>
    <linearGradient x1="1806.608" y1="1405.0789" x2="1805.2633" y2="1410.4569" id="linearGradient5049" xlink:href="#linearGradient12216" gradientUnits="userSpaceOnUse"/>
    <linearGradient x1="1806.608" y1="1405.0789" x2="1805.2633" y2="1410.4569" id="linearGradient5079" xlink:href="#linearGradient12216" gradientUnits="userSpaceOnUse"/>
    <linearGradient x1="1806.608" y1="1405.0789" x2="1805.2633" y2="1410.4569" id="linearGradient5095" xlink:href="#linearGradient12216" gradientUnits="userSpaceOnUse"/>
    <linearGradient x1="1806.608" y1="1405.0789" x2="1805.2633" y2="1410.4569" id="linearGradient5127" xlink:href="#linearGradient12216" gradientUnits="userSpaceOnUse"/>
    <linearGradient x1="1806.608" y1="1405.0789" x2="1805.2633" y2="1410.4569" id="linearGradient5143" xlink:href="#linearGradient12216" gradientUnits="userSpaceOnUse"/>
    <linearGradient x1="1806.608" y1="1405.0789" x2="1805.2633" y2="1410.4569" id="linearGradient5161" xlink:href="#linearGradient12216" gradientUnits="userSpaceOnUse"/>
    <linearGradient x1="1806.608" y1="1405.0789" x2="1805.2633" y2="1410.4569" id="linearGradient6362" xlink:href="#linearGradient12216" gradientUnits="userSpaceOnUse"/>
    <linearGradient x1="1806.608" y1="1405.0789" x2="1805.2633" y2="1410.4569" id="linearGradient6382" xlink:href="#linearGradient12216" gradientUnits="userSpaceOnUse"/>
    <linearGradient x1="1806.608" y1="1405.0789" x2="1805.2633" y2="1410.4569" id="linearGradient6408" xlink:href="#linearGradient12216" gradientUnits="userSpaceOnUse"/>
    <linearGradient x1="1806.608" y1="1405.0789" x2="1805.2633" y2="1410.4569" id="linearGradient8116" xlink:href="#linearGradient12216" gradientUnits="userSpaceOnUse"/>
    <linearGradient x1="1806.608" y1="1405.0789" x2="1805.2633" y2="1410.4569" id="linearGradient8146" xlink:href="#linearGradient12216" gradientUnits="userSpaceOnUse"/>
    <linearGradient x1="1806.608" y1="1405.0789" x2="1805.2633" y2="1410.4569" id="linearGradient8162" xlink:href="#linearGradient12216" gradientUnits="userSpaceOnUse"/>
    <linearGradient x1="1806.608" y1="1405.0789" x2="1805.2633" y2="1410.4569" id="linearGradient8194" xlink:href="#linearGradient12216" gradientUnits="userSpaceOnUse"/>
    <linearGradient x1="1806.608" y1="1405.0789" x2="1805.2633" y2="1410.4569" id="linearGradient8210" xlink:href="#linearGradient12216" gradientUnits="userSpaceOnUse"/>
    <linearGradient x1="1806.608" y1="1405.0789" x2="1805.2633" y2="1410.4569" id="linearGradient8228" xlink:href="#linearGradient12216" gradientUnits="userSpaceOnUse"/>
    <linearGradient x1="1806.608" y1="1405.0789" x2="1805.2633" y2="1410.4569" id="linearGradient8246" xlink:href="#linearGradient12216" gradientUnits="userSpaceOnUse"/>
    <linearGradient x1="1806.608" y1="1405.0789" x2="1805.2633" y2="1410.4569" id="linearGradient8266" xlink:href="#linearGradient12216" gradientUnits="userSpaceOnUse"/>
    <linearGradient x1="1806.608" y1="1405.0789" x2="1805.2633" y2="1410.4569" id="linearGradient8292" xlink:href="#linearGradient12216" gradientUnits="userSpaceOnUse"/>
    <linearGradient x1="1806.608" y1="1405.0789" x2="1805.2633" y2="1410.4569" id="linearGradient9390" xlink:href="#linearGradient12216" gradientUnits="userSpaceOnUse"/>
    <linearGradient x1="1806.608" y1="1405.0789" x2="1805.2633" y2="1410.4569" id="linearGradient9410" xlink:href="#linearGradient12216" gradientUnits="userSpaceOnUse"/>
    <linearGradient x1="1806.608" y1="1405.0789" x2="1805.2633" y2="1410.4569" id="linearGradient9430" xlink:href="#linearGradient12216" gradientUnits="userSpaceOnUse"/>
    <linearGradient x1="1806.608" y1="1405.0789" x2="1805.2633" y2="1410.4569" id="linearGradient9450" xlink:href="#linearGradient12216" gradientUnits="userSpaceOnUse"/>
    <linearGradient x1="1806.608" y1="1405.0789" x2="1805.2633" y2="1410.4569" id="linearGradient10093" xlink:href="#linearGradient12216" gradientUnits="userSpaceOnUse"/>
    <linearGradient x1="1806.608" y1="1405.0789" x2="1805.2633" y2="1410.4569" id="linearGradient10095" xlink:href="#linearGradient12216" gradientUnits="userSpaceOnUse"/>
    <linearGradient x1="1806.608" y1="1405.0789" x2="1805.2633" y2="1410.4569" id="linearGradient10097" xlink:href="#linearGradient12216" gradientUnits="userSpaceOnUse"/>
    <linearGradient x1="1806.608" y1="1405.0789" x2="1805.2633" y2="1410.4569" id="linearGradient10099" xlink:href="#linearGradient12216" gradientUnits="userSpaceOnUse"/>
    <linearGradient x1="1806.608" y1="1405.0789" x2="1805.2633" y2="1410.4569" id="linearGradient10101" xlink:href="#linearGradient12216" gradientUnits="userSpaceOnUse"/>
    <linearGradient x1="1806.608" y1="1405.0789" x2="1805.2633" y2="1410.4569" id="linearGradient10103" xlink:href="#linearGradient12216" gradientUnits="userSpaceOnUse"/>
    <linearGradient x1="1806.608" y1="1405.0789" x2="1805.2633" y2="1410.4569" id="linearGradient10105" xlink:href="#linearGradient12216" gradientUnits="userSpaceOnUse"/>
    <linearGradient x1="1806.608" y1="1405.0789" x2="1805.2633" y2="1410.4569" id="linearGradient10107" xlink:href="#linearGradient12216" gradientUnits="userSpaceOnUse"/>
    <linearGradient x1="1806.608" y1="1405.0789" x2="1805.2633" y2="1410.4569" id="linearGradient10109" xlink:href="#linearGradient12216" gradientUnits="userSpaceOnUse"/>
    <linearGradient x1="1806.608" y1="1405.0789" x2="1805.2633" y2="1410.4569" id="linearGradient10111" xlink:href="#linearGradient12216" gradientUnits="userSpaceOnUse"/>
    <linearGradient x1="1806.608" y1="1405.0789" x2="1805.2633" y2="1410.4569" id="linearGradient10113" xlink:href="#linearGradient12216" gradientUnits="userSpaceOnUse"/>
    <linearGradient x1="1806.608" y1="1405.0789" x2="1805.2633" y2="1410.4569" id="linearGradient10115" xlink:href="#linearGradient12216" gradientUnits="userSpaceOnUse"/>
    <linearGradient x1="1806.608" y1="1405.0789" x2="1805.2633" y2="1410.4569" id="linearGradient11426" xlink:href="#linearGradient12216" gradientUnits="userSpaceOnUse"/>
    <linearGradient x1="1806.608" y1="1405.0789" x2="1805.2633" y2="1410.4569" id="linearGradient11456" xlink:href="#linearGradient12216" gradientUnits="userSpaceOnUse"/>
    <linearGradient x1="1806.608" y1="1405.0789" x2="1805.2633" y2="1410.4569" id="linearGradient11472" xlink:href="#linearGradient12216" gradientUnits="userSpaceOnUse"/>
    <linearGradient x1="1806.608" y1="1405.0789" x2="1805.2633" y2="1410.4569" id="linearGradient11504" xlink:href="#linearGradient12216" gradientUnits="userSpaceOnUse"/>
    <linearGradient x1="1806.608" y1="1405.0789" x2="1805.2633" y2="1410.4569" id="linearGradient11520" xlink:href="#linearGradient12216" gradientUnits="userSpaceOnUse"/>
    <linearGradient x1="1806.608" y1="1405.0789" x2="1805.2633" y2="1410.4569" id="linearGradient11538" xlink:href="#linearGradient12216" gradientUnits="userSpaceOnUse"/>
    <linearGradient x1="1806.608" y1="1405.0789" x2="1805.2633" y2="1410.4569" id="linearGradient11554" xlink:href="#linearGradient12216" gradientUnits="userSpaceOnUse"/>
    <linearGradient x1="1806.608" y1="1405.0789" x2="1805.2633" y2="1410.4569" id="linearGradient11574" xlink:href="#linearGradient12216" gradientUnits="userSpaceOnUse"/>
    <linearGradient x1="1806.608" y1="1405.0789" x2="1805.2633" y2="1410.4569" id="linearGradient11600" xlink:href="#linearGradient12216" gradientUnits="userSpaceOnUse"/>
    <linearGradient x1="1806.608" y1="1405.0789" x2="1805.2633" y2="1410.4569" id="linearGradient11626" xlink:href="#linearGradient12216" gradientUnits="userSpaceOnUse"/>
    <linearGradient x1="1806.608" y1="1405.0789" x2="1805.2633" y2="1410.4569" id="linearGradient11646" xlink:href="#linearGradient12216" gradientUnits="userSpaceOnUse"/>
    <linearGradient x1="1806.608" y1="1405.0789" x2="1805.2633" y2="1410.4569" id="linearGradient11662" xlink:href="#linearGradient12216" gradientUnits="userSpaceOnUse"/>
    <linearGradient x1="1806.608" y1="1405.0789" x2="1805.2633" y2="1410.4569" id="linearGradient12338" xlink:href="#linearGradient12216" gradientUnits="userSpaceOnUse"/>
    <linearGradient x1="1806.608" y1="1405.0789" x2="1805.2633" y2="1410.4569" id="linearGradient12354" xlink:href="#linearGradient12216" gradientUnits="userSpaceOnUse"/>
    <linearGradient x1="1806.608" y1="1405.0789" x2="1805.2633" y2="1410.4569" id="linearGradient12371" xlink:href="#linearGradient12216" gradientUnits="userSpaceOnUse"/>
    <linearGradient x1="1806.608" y1="1405.0789" x2="1805.2633" y2="1410.4569" id="linearGradient12391" xlink:href="#linearGradient12216" gradientUnits="userSpaceOnUse"/>
    <linearGradient x1="1806.608" y1="1405.0789" x2="1805.2633" y2="1410.4569" id="linearGradient12415" xlink:href="#linearGradient12216" gradientUnits="userSpaceOnUse"/>
    <linearGradient x1="1806.608" y1="1405.0789" x2="1805.2633" y2="1410.4569" id="linearGradient12431" xlink:href="#linearGradient12216" gradientUnits="userSpaceOnUse"/>
    <linearGradient x1="1806.608" y1="1405.0789" x2="1805.2633" y2="1410.4569" id="linearGradient12447" xlink:href="#linearGradient12216" gradientUnits="userSpaceOnUse"/>
    <linearGradient x1="1806.608" y1="1405.0789" x2="1805.2633" y2="1410.4569" id="linearGradient12465" xlink:href="#linearGradient12216" gradientUnits="userSpaceOnUse"/>
    <linearGradient x1="1806.608" y1="1405.0789" x2="1805.2633" y2="1410.4569" id="linearGradient12481" xlink:href="#linearGradient12216" gradientUnits="userSpaceOnUse"/>
    <linearGradient x1="1806.608" y1="1405.0789" x2="1805.2633" y2="1410.4569" id="linearGradient12513" xlink:href="#linearGradient12216" gradientUnits="userSpaceOnUse"/>
    <linearGradient x1="1806.608" y1="1405.0789" x2="1805.2633" y2="1410.4569" id="linearGradient12529" xlink:href="#linearGradient12216" gradientUnits="userSpaceOnUse"/>
    <linearGradient x1="1806.608" y1="1405.0789" x2="1805.2633" y2="1410.4569" id="linearGradient12557" xlink:href="#linearGradient12216" gradientUnits="userSpaceOnUse"/>
    <linearGradient x1="897.25354" y1="345.13638" x2="825.54498" y2="354.99628" id="linearGradient12561-2" xlink:href="#linearGradient11931-9" gradientUnits="userSpaceOnUse"/>
    <linearGradient id="linearGradient11931-9">
      <stop id="stop11933-2" style="stop-color:#ff3401;stop-opacity:1" offset="0"/>
      <stop id="stop11935-9" style="stop-color:#ff3401;stop-opacity:0" offset="1"/>
    </linearGradient>
  </defs>
  <metadata id="metadata4">
    <rdf:RDF>
      <cc:Work rdf:about="">
        <dc:format>image/svg+xml</dc:format>
        <dc:type rdf:resource="http://purl.org/dc/dcmitype/StillImage"/>
        <dc:title/>
      </cc:Work>
    </rdf:RDF>
  </metadata>
  <g transform="matrix(0.43072226,0,0,0.43072226,-1031.074,2389.1581)" id="g6353">
    <g transform="matrix(7.003666,9.8834994,-9.8834994,7.003666,1015.2316,-15645.451)" id="g4963">
      <path d="m 818.37412,399.81414 14.34171,-8.96357 -20.61621,-8.96357 6.2745,-2.68907 -8.06722,-9.85993 3.58543,-2.68907 -8.06721,-14.34172 2.68907,0 -9.85993,-13.44536 15.23807,2.68908 0,-4.48179 11.65265,6.2745 1.79271,-5.37814 8.96357,8.96357 2.68907,-1.79271 9.8599,12.549 -8.96354,-16.13443 4.48174,0 -7.17081,-12.549 4.48179,0.89635 -7.17086,-14.34171 4.48178,1.79271 -5.37814,-13.44536 10.75624,5.37815 1.7928,-6.2745 6.2745,5.37814 -3.5855,-13.44536 4.4818,0.89636 0,-8.06722 2.6891,-3.58542 -7.1709,-15.23808 10.7563,11.65265 0,-9.85993 4.4818,4.48178 0,-8.06721 2.6891,0.89636 -3.5855,-9.85993 2.6891,1.79271 -5.3781,-22.40893 5.3781,9.85993 5.3782,-1.79271 5.3781,7.17085 3.5854,0 3.5855,9.85993 1.7927,-1.79271 5.3781,8.06721 2.6891,6.2745 7.1709,8.96358 4.4817,-9.85993 3.5855,12.549 4.4818,-1.79272 -1.7928,8.06722 2.6891,0 -0.8963,5.37814 7.1708,-3.58543 0.8964,1.79272 8.9635,-2.68908 0,3.58543 5.3782,0 -3.5854,13.44536 2.689,0 -4.4818,8.96357 3.5855,0 -5.3782,8.06722 5.3782,0 -3.5855,9.85993 5.3782,0.89635 16.1344,-5.37814 0.8964,3.58543 14.3417,-2.68907 -7.1709,6.2745 8.0672,0.89636 -8.9635,8.06721 4.4818,2.68907 c 0,0 -0.8964,5.37815 -4.4818,7.17086 -3.5855,1.79271 1.7927,4.48179 1.7927,4.48179 l -11.6527,8.96357 4.4818,2.68907 -8.9635,5.37814 4.4817,3.58543 -13.4453,5.37814 7.1708,0.89636 -12.549,6.2745 3.5855,4.48179 -10.7563,2.68907 8.9636,2.68907 -8.9636,0.89636 3.5854,4.48178 -9.8599,0 -12.549,1.79272 2.6891,2.68907 -9.86,-2.68907 -14.3417,-2.68907 -6.2745,-6.2745 -26.8907,47.50693 -5.3782,-0.89636 29.5798,-48.40329 c 0,0 -18.8235,10.75629 -23.3053,8.06722 -4.4817,-2.68907 -10.75624,-5.37815 -13.44531,-6.2745 -2.68907,-0.89636 -11.65264,-0.89636 -11.65264,-0.89636 z" id="path4965" style="fill:#ca1c01;fill-opacity:1;stroke:#000000;stroke-width:1px;stroke-linecap:butt;stroke-linejoin:miter;stroke-opacity:1"/>
      <path d="m 818.37412,399.81414 14.34171,-8.96357 -20.61621,-8.96357 6.2745,-2.68907 -8.06722,-9.85993 3.58543,-2.68907 -8.06721,-14.34172 2.68907,0 -9.85993,-13.44536 15.23807,2.68908 0,-4.48179 11.65265,6.2745 1.79271,-5.37814 8.96357,8.96357 2.68907,-1.79271 9.8599,12.549 -8.96354,-16.13443 4.48174,0 -7.17081,-12.549 4.48179,0.89635 -7.17086,-14.34171 4.48178,1.79271 -5.37814,-13.44536 10.75624,5.37815 1.7928,-6.2745 6.2745,5.37814 -3.5855,-13.44536 4.4818,0.89636 0,-8.06722 2.6891,-3.58542 -7.1709,-15.23808 10.7563,11.65265 0,-9.85993 4.4818,4.48178 0,-8.06721 2.6891,0.89636 -3.5855,-9.85993 2.6891,1.79271 -5.3781,-22.40893 5.3781,9.85993 5.3782,-1.79271 5.3781,7.17085 3.5854,0 3.5855,9.85993 1.7927,-1.79271 5.3781,8.06721 2.6891,6.2745 7.1709,8.96358 4.4817,-9.85993 3.5855,12.549 4.4818,-1.79272 -1.7928,8.06722 2.6891,0 -0.8963,5.37814 7.1708,-3.58543 0.8964,1.79272 8.9635,-2.68908 0,3.58543 5.3782,0 -3.5854,13.44536 2.689,0 -4.4818,8.96357 3.5855,0 -5.3782,8.06722 5.3782,0 -3.5855,9.85993 5.3782,0.89635 16.1344,-5.37814 0.8964,3.58543 14.3417,-2.68907 -7.1709,6.2745 8.0672,0.89636 -8.9635,8.06721 4.4818,2.68907 c 0,0 -0.8964,5.37815 -4.4818,7.17086 -3.5855,1.79271 1.7927,4.48179 1.7927,4.48179 l -11.6527,8.96357 4.4818,2.68907 -8.9635,5.37814 4.4817,3.58543 -13.4453,5.37814 7.1708,0.89636 -12.549,6.2745 3.5855,4.48179 -10.7563,2.68907 8.9636,2.68907 -8.9636,0.89636 3.5854,4.48178 -9.8599,0 -12.549,1.79272 2.6891,2.68907 -9.86,-2.68907 -14.3417,-2.68907 -6.2745,-6.2745 -26.8907,47.50693 -5.3782,-0.89636 29.5798,-48.40329 c 0,0 -18.8235,10.75629 -23.3053,8.06722 -4.4817,-2.68907 -10.75624,-5.37815 -13.44531,-6.2745 -2.68907,-0.89636 -11.65264,-0.89636 -11.65264,-0.89636 z" id="path4967" style="fill:url(#linearGradient12561-2);fill-opacity:1;stroke:#aa0000;stroke-width:1px;stroke-linecap:butt;stroke-linejoin:miter;stroke-opacity:1"/>
      <path d="m 872.15555,256.39699 c 0,0 25.99436,87.84301 15.23808,117.42279 -10.75629,29.57979 -12.54901,30.47615 -12.54901,30.47615" id="path4969" style="fill:none;stroke:#d40000;stroke-width:1px;stroke-linecap:butt;stroke-linejoin:miter;stroke-opacity:1"/>
      <path d="m 930.41877,335.27642 c 0,0 -20.61621,44.81786 -31.3725,51.09236 -10.75629,6.27451 -18.8235,7.17086 -18.8235,7.17086" id="path4971" style="fill:none;stroke:#d40000;stroke-width:1px;stroke-linecap:butt;stroke-linejoin:miter;stroke-opacity:1"/>
      <path d="m 814.78869,349.61814 c 0,0 38.54336,34.06157 51.09236,39.43972 12.549,5.37814 15.23808,4.48178 15.23808,4.48178" id="path4973" style="fill:none;stroke:#d40000;stroke-width:1px;stroke-linecap:butt;stroke-linejoin:miter;stroke-opacity:1"/>
    </g>
  </g>
</svg>