<?xml version="1.0" encoding="UTF-8" standalone="no"?>
<!-- Uploaded to: SVG Repo, www.svgrepo.com, Generator: SVG Repo Mixer Tools -->

<svg
   xmlns:dc="http://purl.org/dc/elements/1.1/"
   xmlns:cc="http://creativecommons.org/ns#"
   xmlns:rdf="http://www.w3.org/1999/02/22-rdf-syntax-ns#"
   xmlns:svg="http://www.w3.org/2000/svg"
   xmlns="http://www.w3.org/2000/svg"
   xmlns:sodipodi="http://sodipodi.sourceforge.net/DTD/sodipodi-0.dtd"
   xmlns:inkscape="http://www.inkscape.org/namespaces/inkscape"
   height="100"
   width="100"
   version="1.1"
   id="Layer_1"
   viewBox="0 0 62.019754 62.019746"
   xml:space="preserve"
   sodipodi:docname="RAZ.svg"
   inkscape:version="0.92.5 (2060ec1f9f, 2020-04-08)"><metadata
   id="metadata11"><rdf:RDF><cc:Work
       rdf:about=""><dc:format>image/svg+xml</dc:format><dc:type
         rdf:resource="http://purl.org/dc/dcmitype/StillImage" /><dc:title></dc:title></cc:Work></rdf:RDF></metadata><defs
   id="defs9" /><sodipodi:namedview
   pagecolor="#ffffff"
   bordercolor="#666666"
   borderopacity="1"
   objecttolerance="10"
   gridtolerance="10"
   guidetolerance="10"
   inkscape:pageopacity="0"
   inkscape:pageshadow="2"
   inkscape:window-width="1398"
   inkscape:window-height="851"
   id="namedview7"
   showgrid="false"
   inkscape:zoom="2.36"
   inkscape:cx="40.806767"
   inkscape:cy="8.176989"
   inkscape:window-x="42"
   inkscape:window-y="25"
   inkscape:window-maximized="1"
   inkscape:current-layer="Layer_1"
   inkscape:pagecheckerboard="0"
   fit-margin-top="0"
   fit-margin-left="0"
   fit-margin-right="0"
   fit-margin-bottom="0" />


<rect
   y="-9.0957212"
   x="-3.3078473"
   style="fill:#ffffff;fill-opacity:0.01000001;stroke-width:1.65385997"
   width="79.385277"
   height="79.385277"
   id="rect2" /><path
   inkscape:connector-curvature="0"
   style="clip-rule:evenodd;fill:#2f88ff;fill-rule:evenodd;stroke:#000000;stroke-width:4.51306868;stroke-linejoin:round"
   d="M 53.16864,49.329864 C 47.647915,42.590836 42.745369,38.766801 38.461,37.857756 34.17663,36.948711 30.097493,36.811401 26.223588,37.445712 V 49.514788 L 8.0379512,29.821221 26.223588,11.153703 v 11.471091 c 7.162804,0.05664 13.252175,2.626381 18.268113,7.709451 5.01605,5.083069 7.90825,11.414904 8.676939,18.995619 z"
   id="path4-3" /></svg>